## Interface: 60200
## Title: gsMiniMapButtons 
## Notes: Adds minimap buttons with useful bits of info in them...
## Author: ColbyWanShinobi
## Version: 1.0
## X-Category: Interface Enhancements

gsMiniMapButtons.lua