## Interface: 60200
## Title: ReloadUI (GameShaman) 
## Notes: Adds the '/reloadui' and '/rl' commands to allow you to reload your UI. Really, that's it...
## Author: ColbyWanShinobi
## Version: 1.0
## X-Category: Interface Enhancements

gsReloadUI.lua